<?xml version="1.0" encoding="UTF-8" standalone="no"?>
<svg
   xmlns:dc="http://purl.org/dc/elements/1.1/"
   xmlns:cc="http://creativecommons.org/ns#"
   xmlns:rdf="http://www.w3.org/1999/02/22-rdf-syntax-ns#"
   xmlns:svg="http://www.w3.org/2000/svg"
   xmlns="http://www.w3.org/2000/svg"
   xmlns:sodipodi="http://sodipodi.sourceforge.net/DTD/sodipodi-0.dtd"
   xmlns:inkscape="http://www.inkscape.org/namespaces/inkscape"
   width="24"
   height="24"
   viewBox="0 0 24 24"
   fill="none"
   version="1.1"
   id="svg4"
   sodipodi:docname="attach.svg"
   inkscape:version="1.0.1 (3bc2e813f5, 2020-09-07)">
  <metadata
     id="metadata10">
    <rdf:RDF>
      <cc:Work
         rdf:about="">
        <dc:format>image/svg+xml</dc:format>
        <dc:type
           rdf:resource="http://purl.org/dc/dcmitype/StillImage" />
      </cc:Work>
    </rdf:RDF>
  </metadata>
  <defs
     id="defs8" />
  <sodipodi:namedview
     pagecolor="#ffffff"
     bordercolor="#666666"
     borderopacity="1"
     objecttolerance="10"
     gridtolerance="10"
     guidetolerance="10"
     inkscape:pageopacity="0"
     inkscape:pageshadow="2"
     inkscape:window-width="1920"
     inkscape:window-height="1017"
     id="namedview6"
     showgrid="false"
     inkscape:zoom="35.416667"
     inkscape:cx="12"
     inkscape:cy="12"
     inkscape:window-x="-8"
     inkscape:window-y="-8"
     inkscape:window-maximized="1"
     inkscape:current-layer="svg4" />
  <path
     style="color:#000000;font-style:normal;font-variant:normal;font-weight:normal;font-stretch:normal;font-size:medium;line-height:normal;font-family:sans-serif;font-variant-ligatures:normal;font-variant-position:normal;font-variant-caps:normal;font-variant-numeric:normal;font-variant-alternates:normal;font-variant-east-asian:normal;font-feature-settings:normal;font-variation-settings:normal;text-indent:0;text-align:start;text-decoration:none;text-decoration-line:none;text-decoration-style:solid;text-decoration-color:#000000;letter-spacing:normal;word-spacing:normal;text-transform:none;writing-mode:lr-tb;direction:ltr;text-orientation:mixed;dominant-baseline:auto;baseline-shift:baseline;text-anchor:start;white-space:normal;shape-padding:0;shape-margin:0;inline-size:0;clip-rule:nonzero;display:inline;overflow:visible;visibility:visible;isolation:auto;mix-blend-mode:normal;color-interpolation:sRGB;color-interpolation-filters:linearRGB;solid-color:#000000;solid-opacity:1;vector-effect:none;fill:#212154;fill-opacity:1;fill-rule:nonzero;stroke:none;stroke-width:1;stroke-linecap:butt;stroke-linejoin:miter;stroke-miterlimit:4;stroke-dasharray:none;stroke-dashoffset:0;stroke-opacity:1;color-rendering:auto;image-rendering:auto;shape-rendering:auto;text-rendering:auto;enable-background:accumulate;stop-color:#000000;stop-opacity:1;opacity:1"
     d="M 17.3125 2.5488281 C 16.765961 2.4755343 16.20461 2.5091156 15.662109 2.6542969 C 14.577201 2.9446761 13.653342 3.6585566 13.09375 4.6347656 L 7.0507812 15.189453 C 6.7380346 15.735024 6.655204 16.382115 6.8183594 16.990234 C 6.9815059 17.59832 7.3780433 18.117433 7.921875 18.433594 C 8.4656079 18.749824 9.1138241 18.838249 9.7207031 18.675781 C 10.327561 18.513333 10.84349 18.113821 11.15625 17.568359 L 16.732422 7.828125 L 15.865234 7.3320312 L 10.289062 17.070312 C 10.108022 17.386051 9.8104194 17.615433 9.4609375 17.708984 C 9.1115565 17.802517 8.7407283 17.753483 8.4257812 17.570312 C 8.1109329 17.387273 7.8801097 17.084383 7.7851562 16.730469 C 7.6902117 16.376588 7.7389885 16.001176 7.9199219 15.685547 L 13.960938 5.1308594 C 14.388745 4.3845484 15.094383 3.8425745 15.921875 3.6210938 C 16.749473 3.3996163 17.630692 3.5183604 18.375 3.9511719 C 19.119301 4.3839793 19.664669 5.0947067 19.888672 5.9296875 C 20.112671 6.7646623 19.996174 7.6540678 19.568359 8.4003906 L 13.525391 18.945312 C 12.850781 20.122258 11.737219 20.978678 10.431641 21.328125 C 9.1258909 21.677493 7.7341655 21.491068 6.5605469 20.808594 C 5.3869208 20.126115 4.5288332 19.0035 4.1757812 17.6875 C 3.8227386 16.371501 4.0050633 14.971877 4.6796875 13.794922 L 10.724609 3.2480469 L 9.8554688 2.7519531 L 3.8125 13.296875 C 3.0061042 14.70372 2.7897002 16.377065 3.2109375 17.947266 C 3.6321856 19.517466 4.6561798 20.856353 6.0585938 21.671875 C 7.4610151 22.487401 9.128276 22.711201 10.691406 22.292969 C 12.254428 21.874616 13.586188 20.848261 14.392578 19.441406 L 20.4375 8.8964844 C 20.997085 7.9202872 21.145717 6.7610802 20.853516 5.671875 C 20.561318 4.5826958 19.852005 3.65179 18.878906 3.0859375 C 18.39236 2.8030132 17.859039 2.622122 17.3125 2.5488281 z "
     id="path14" />
</svg>
