<svg width="146" height="146" viewBox="0 0 146 146" fill="none" xmlns="http://www.w3.org/2000/svg">
<path d="M73 146C113.317 146 146 113.317 146 73C146 32.6832 113.317 0 73 0C32.6832 0 0 32.6832 0 73C0 113.317 32.6832 146 73 146Z" fill="url(#paint0_linear)"/>
<defs>
<linearGradient id="paint0_linear" x1="72.9686" y1="145.976" x2="72.9686" y2="0.0394565" gradientUnits="userSpaceOnUse">
<stop stop-color="#EECD55" stop-opacity="0.1"/>
<stop offset="1" stop-color="#EECD55"/>
</linearGradient>
</defs>
</svg>
