<svg width="510" height="170" viewBox="0 0 510 170" fill="none" xmlns="http://www.w3.org/2000/svg">
<g clip-path="url(#clip0)">
<path d="M190.329 79.3281L127.22 16.2109L108.17 35.2615L171.287 98.3452C172.536 99.5969 174.02 100.59 175.654 101.267C177.288 101.945 179.039 102.294 180.808 102.294C182.577 102.294 184.328 101.945 185.962 101.267C187.595 100.59 189.079 99.5969 190.329 98.3452C192.845 95.8204 194.258 92.4012 194.258 88.8366C194.258 85.2721 192.845 81.8529 190.329 79.3281Z" fill="url(#paint0_linear)"/>
<path d="M143.167 79.698L53.0506 -10.418L34 8.63263L124.116 98.7486C126.643 101.273 130.069 102.691 133.641 102.691C137.213 102.691 140.639 101.273 143.167 98.7486C145.691 96.2213 147.109 92.7953 147.109 89.2233C147.109 85.6512 145.691 82.2252 143.167 79.698Z" fill="url(#paint1_linear)"/>
<path d="M166.802 120.184L103.685 57.0664L84.6423 76.117L147.785 139.234C150.312 141.759 153.738 143.176 157.31 143.176C160.882 143.176 164.308 141.759 166.835 139.234C168.084 137.981 169.074 136.494 169.748 134.859C170.422 133.223 170.767 131.471 170.764 129.702C170.761 127.933 170.41 126.182 169.73 124.549C169.05 122.915 168.055 121.432 166.802 120.184Z" fill="url(#paint2_linear)"/>
<path d="M231.617 74.9219C228.883 74.9219 226.211 75.7325 223.938 77.2512C221.665 78.7699 219.894 80.9286 218.848 83.4541C217.801 85.9797 217.528 88.7587 218.061 91.4398C218.594 94.1209 219.911 96.5837 221.844 98.5167C223.777 100.45 226.239 101.766 228.92 102.299C231.602 102.833 234.381 102.559 236.906 101.513C239.432 100.467 241.59 98.6951 243.109 96.4222C244.628 94.1493 245.438 91.477 245.438 88.7434C245.438 85.0777 243.982 81.5621 241.39 78.9701C238.798 76.3781 235.283 74.9219 231.617 74.9219ZM231.617 96.1729C230.148 96.1729 228.711 95.7371 227.489 94.9208C226.268 94.1044 225.315 92.9441 224.753 91.5865C224.191 90.229 224.044 88.7351 224.33 87.294C224.617 85.8528 225.324 84.529 226.363 83.4899C227.403 82.4509 228.726 81.7433 230.168 81.4567C231.609 81.17 233.103 81.3171 234.46 81.8794C235.818 82.4418 236.978 83.394 237.794 84.6158C238.611 85.8376 239.046 87.274 239.046 88.7434C239.046 90.7146 238.264 92.6052 236.871 93.9998C235.478 95.3944 233.588 96.179 231.617 96.1812V96.1729Z" fill="white"/>
<path d="M381.21 86.8099C380.546 86.5228 379.845 86.3313 379.127 86.241C376.073 85.9147 369.196 84.986 369.037 84.9693C368.598 84.9547 368.181 84.7737 367.87 84.463C367.559 84.1523 367.378 83.7351 367.364 83.296C367.364 82.8522 367.54 82.4266 367.854 82.1128C368.167 81.799 368.593 81.6227 369.037 81.6227C369.238 81.6227 381.871 81.6227 383.678 81.6227V75.6406C381.746 75.6406 372.191 75.6406 370.25 75.6406C368.933 75.6413 367.625 75.8677 366.385 76.31C363.038 77.5482 361.365 79.7904 361.072 82.2753C360.982 83.4465 361.112 84.6243 361.457 85.7474C361.779 87.0741 362.54 88.2532 363.615 89.094C364.822 89.9856 366.253 90.5244 367.748 90.6502C370.693 91.0099 377.947 91.8968 378.106 91.9386C378.46 92.029 378.78 92.221 379.027 92.4908C379.342 92.8124 379.539 93.231 379.587 93.6789C379.595 93.7511 379.595 93.8241 379.587 93.8964C379.603 94.3579 379.451 94.8095 379.16 95.1681C378.96 95.3833 378.716 95.5529 378.445 95.6655C378.174 95.7781 377.881 95.831 377.587 95.8207H376.709C374.676 95.8207 365.172 95.8207 363.138 95.8207V101.761C365.021 101.761 372.827 101.761 375.772 101.761C376.586 101.765 377.399 101.715 378.207 101.61C380.062 101.419 381.828 100.719 383.31 99.5856C385.318 97.9625 385.904 95.804 385.904 93.294C385.889 91.8604 385.429 90.4668 384.588 89.3055C383.748 88.1441 382.567 87.2722 381.21 86.8099Z" fill="white"/>
<path d="M402.077 74.9219C399.343 74.9202 396.67 75.7294 394.396 77.2472C392.122 78.7649 390.349 80.9229 389.302 83.4483C388.254 85.9737 387.98 88.753 388.512 91.4347C389.044 94.1164 390.36 96.5799 392.293 98.5137C394.225 100.448 396.688 101.765 399.369 102.299C402.051 102.833 404.83 102.559 407.356 101.514C409.882 100.468 412.041 98.6962 413.56 96.4231C415.079 94.15 415.89 91.4774 415.89 88.7434C415.89 85.0791 414.435 81.5649 411.845 78.9731C409.255 76.3813 405.741 74.9241 402.077 74.9219ZM402.077 96.1729C400.608 96.1729 399.171 95.7371 397.95 94.9208C396.728 94.1044 395.776 92.9441 395.213 91.5865C394.651 90.229 394.504 88.7352 394.79 87.294C395.077 85.8528 395.785 84.529 396.824 83.49C397.863 82.4509 399.187 81.7433 400.628 81.4567C402.069 81.17 403.563 81.3171 404.92 81.8794C406.278 82.4418 407.438 83.394 408.255 84.6158C409.071 85.8376 409.507 87.274 409.507 88.7434C409.507 90.7146 408.724 92.6052 407.331 93.9998C405.938 95.3944 404.048 96.179 402.077 96.1812V96.1729Z" fill="white"/>
<path d="M268.572 76.8783C266.851 76.107 264.987 75.7051 263.1 75.6986C257.286 75.6568 248.81 75.6484 248.81 75.6484V101.852H255.847V95.1592C255.847 95.1592 259.193 95.1592 262.314 95.1592C263.974 95.1715 265.626 94.9375 267.217 94.4648C270.245 93.5361 272.362 91.6703 273.174 88.5329C273.675 86.5904 273.701 84.5556 273.249 82.601C272.993 81.3389 272.434 80.1581 271.619 79.1609C270.804 78.1638 269.758 77.3803 268.572 76.8783ZM264.322 88.5162C263.883 88.5927 263.438 88.6318 262.992 88.6333C259.519 88.6333 255.872 88.6835 255.872 88.6835V82.2245C255.872 82.2245 257.662 82.2245 261.126 82.2245C262.531 82.2245 263.92 82.3082 264.071 82.3249C264.795 82.4331 265.458 82.7902 265.947 83.3348C266.436 83.8793 266.719 84.5772 266.749 85.3084C266.779 86.0396 266.553 86.7582 266.11 87.3407C265.667 87.9231 265.034 88.3329 264.322 88.4994V88.5162Z" fill="white"/>
<path d="M301.729 88.5747C302.231 86.6323 302.257 84.5974 301.805 82.6429C301.555 81.3731 300.998 80.1839 300.183 79.179C299.368 78.1741 298.319 77.3842 297.128 76.8783C295.407 76.106 293.542 75.7041 291.656 75.6986C285.841 75.6568 277.374 75.6484 277.374 75.6484V101.852H284.402V95.2094C284.402 95.2094 287.305 95.2094 290.259 95.2094L294.258 101.852H302.139C302.139 101.852 299.052 97.1672 297.01 94.0548C298.18 93.5879 299.219 92.846 300.04 91.8921C300.862 90.9381 301.441 89.8002 301.729 88.5747ZM292.886 88.5162C292.446 88.5918 292.001 88.6309 291.556 88.6333C288.075 88.6333 284.436 88.6835 284.436 88.6835V82.2245C284.436 82.2245 286.218 82.2245 289.681 82.2245C291.087 82.2245 292.476 82.3082 292.626 82.3249C293.351 82.4319 294.015 82.7881 294.504 83.332C294.994 83.8759 295.279 84.5736 295.31 85.3049C295.34 86.0362 295.115 86.7553 294.673 87.3384C294.23 87.9215 293.598 88.3321 292.886 88.4994V88.5162Z" fill="white"/>
<path d="M354.756 86.8099C354.095 86.5228 353.396 86.3313 352.681 86.241C349.627 85.9147 342.741 84.986 342.591 84.9693C342.151 84.9567 341.733 84.7763 341.422 84.4652C341.111 84.1541 340.93 83.7358 340.918 83.296C340.918 82.8522 341.094 82.4266 341.408 82.1128C341.721 81.799 342.147 81.6227 342.591 81.6227C342.792 81.6227 355.425 81.6227 357.232 81.6227V75.6406C355.3 75.6406 345.737 75.6406 343.846 75.6406C342.529 75.6405 341.221 75.8669 339.981 76.31C336.634 77.5482 334.961 79.7904 334.668 82.2753C334.573 83.4466 334.704 84.6252 335.053 85.7474C335.372 87.0754 336.133 88.2554 337.211 89.094C338.416 89.9842 339.844 90.5228 341.336 90.6502C344.289 91.0099 351.535 91.8968 351.702 91.9386C352.054 92.033 352.373 92.2243 352.622 92.4908C352.934 92.8146 353.131 93.2321 353.183 93.6789C353.187 93.7513 353.187 93.8239 353.183 93.8964C353.199 94.3579 353.047 94.8095 352.756 95.1681C352.555 95.3824 352.311 95.5514 352.04 95.664C351.769 95.7765 351.477 95.8299 351.183 95.8207H350.305C348.272 95.8207 338.767 95.8207 336.734 95.8207V101.761C338.617 101.761 346.414 101.761 349.368 101.761C350.182 101.765 350.995 101.715 351.802 101.61C353.657 101.418 355.423 100.717 356.906 99.5856C358.914 97.9625 359.5 95.804 359.5 93.294C359.482 91.8539 359.016 90.4552 358.165 89.2929C357.315 88.1306 356.123 87.2626 354.756 86.8099Z" fill="white"/>
<path d="M318.671 74.9219C315.938 74.9219 313.266 75.7325 310.993 77.2512C308.72 78.7699 306.948 80.9286 305.902 83.4541C304.856 85.9797 304.582 88.7587 305.115 91.4398C305.649 94.1209 306.965 96.5837 308.898 98.5167C310.831 100.45 313.294 101.766 315.975 102.299C318.656 102.833 321.435 102.559 323.961 101.513C326.486 100.467 328.645 98.6951 330.164 96.4222C331.682 94.1493 332.493 91.477 332.493 88.7434C332.493 85.0777 331.037 81.5621 328.445 78.9701C325.853 76.3781 322.337 74.9219 318.671 74.9219ZM318.671 96.1729C317.202 96.1729 315.766 95.7371 314.544 94.9208C313.322 94.1044 312.37 92.9441 311.807 91.5865C311.245 90.229 311.098 88.7351 311.385 87.294C311.671 85.8528 312.379 84.529 313.418 83.4899C314.457 82.4509 315.781 81.7433 317.222 81.4567C318.663 81.17 320.157 81.3171 321.515 81.8794C322.872 82.4418 324.032 83.394 324.849 84.6158C325.665 85.8376 326.101 87.274 326.101 88.7434C326.101 90.7146 325.318 92.6052 323.925 93.9998C322.532 95.3944 320.643 96.179 318.671 96.1812V96.1729Z" fill="white"/>
</g>
<path d="M261.628 130.945V115.325H268.536C269.255 115.325 269.915 115.479 270.516 115.787C271.132 116.081 271.66 116.477 272.1 116.975C272.54 117.459 272.885 118.017 273.134 118.647C273.383 119.263 273.508 119.887 273.508 120.517C273.508 121.529 273.251 122.453 272.738 123.289C272.239 124.111 271.557 124.705 270.692 125.071L274.256 130.945H270.846L267.656 125.709H264.664V130.945H261.628ZM264.664 123.047H268.47C268.749 123.047 269.005 122.981 269.24 122.849C269.489 122.717 269.702 122.541 269.878 122.321C270.054 122.087 270.193 121.815 270.296 121.507C270.399 121.199 270.45 120.869 270.45 120.517C270.45 120.151 270.391 119.813 270.274 119.505C270.157 119.197 269.995 118.933 269.79 118.713C269.599 118.479 269.372 118.303 269.108 118.185C268.859 118.053 268.602 117.987 268.338 117.987H264.664V123.047ZM287.545 128.283V130.945H276.699V115.325H287.347V117.987H279.735V121.749H286.313V124.213H279.735V128.283H287.545ZM299.335 119.417C299.233 119.315 299.042 119.175 298.763 118.999C298.499 118.823 298.169 118.655 297.773 118.493C297.392 118.317 296.974 118.171 296.519 118.053C296.065 117.936 295.603 117.877 295.133 117.877C294.297 117.877 293.674 118.031 293.263 118.339C292.853 118.647 292.647 119.08 292.647 119.637C292.647 119.96 292.721 120.231 292.867 120.451C293.029 120.657 293.256 120.84 293.549 121.001C293.843 121.163 294.209 121.309 294.649 121.441C295.104 121.573 295.625 121.713 296.211 121.859C296.974 122.065 297.663 122.285 298.279 122.519C298.91 122.754 299.438 123.047 299.863 123.399C300.303 123.751 300.641 124.177 300.875 124.675C301.11 125.159 301.227 125.761 301.227 126.479C301.227 127.315 301.066 128.034 300.743 128.635C300.435 129.222 300.01 129.699 299.467 130.065C298.939 130.432 298.323 130.703 297.619 130.879C296.93 131.041 296.204 131.121 295.441 131.121C294.268 131.121 293.109 130.945 291.965 130.593C290.821 130.241 289.795 129.743 288.885 129.097L290.227 126.479C290.359 126.611 290.594 126.787 290.931 127.007C291.283 127.213 291.694 127.425 292.163 127.645C292.633 127.851 293.153 128.027 293.725 128.173C294.297 128.32 294.884 128.393 295.485 128.393C297.157 128.393 297.993 127.858 297.993 126.787C297.993 126.45 297.898 126.164 297.707 125.929C297.517 125.695 297.245 125.489 296.893 125.313C296.541 125.137 296.116 124.976 295.617 124.829C295.119 124.683 294.561 124.521 293.945 124.345C293.197 124.14 292.545 123.92 291.987 123.685C291.445 123.436 290.99 123.15 290.623 122.827C290.257 122.49 289.978 122.109 289.787 121.683C289.611 121.243 289.523 120.723 289.523 120.121C289.523 119.329 289.67 118.625 289.963 118.009C290.257 117.393 290.66 116.88 291.173 116.469C291.701 116.059 292.31 115.751 292.999 115.545C293.689 115.325 294.429 115.215 295.221 115.215C296.321 115.215 297.333 115.391 298.257 115.743C299.181 116.081 299.988 116.484 300.677 116.953L299.335 119.417ZM314.808 128.283V130.945H303.962V115.325H314.61V117.987H306.998V121.749H313.576V124.213H306.998V128.283H314.808ZM322.059 115.325H324.743L330.683 130.945H327.559L326.107 127.051H320.651L319.221 130.945H316.097L322.059 115.325ZM325.557 124.917L323.401 118.779L321.157 124.917H325.557ZM332.836 130.945V115.325H339.744C340.462 115.325 341.122 115.479 341.724 115.787C342.34 116.081 342.868 116.477 343.308 116.975C343.748 117.459 344.092 118.017 344.342 118.647C344.591 119.263 344.716 119.887 344.716 120.517C344.716 121.529 344.459 122.453 343.946 123.289C343.447 124.111 342.765 124.705 341.9 125.071L345.464 130.945H342.054L338.864 125.709H335.872V130.945H332.836ZM335.872 123.047H339.678C339.956 123.047 340.213 122.981 340.448 122.849C340.697 122.717 340.91 122.541 341.086 122.321C341.262 122.087 341.401 121.815 341.504 121.507C341.606 121.199 341.658 120.869 341.658 120.517C341.658 120.151 341.599 119.813 341.482 119.505C341.364 119.197 341.203 118.933 340.998 118.713C340.807 118.479 340.58 118.303 340.316 118.185C340.066 118.053 339.81 117.987 339.546 117.987H335.872V123.047ZM346.961 123.025C346.961 122.072 347.129 121.133 347.467 120.209C347.819 119.271 348.325 118.435 348.985 117.701C349.645 116.968 350.451 116.374 351.405 115.919C352.358 115.465 353.443 115.237 354.661 115.237C356.098 115.237 357.337 115.553 358.379 116.183C359.435 116.814 360.219 117.635 360.733 118.647L358.401 120.253C358.195 119.813 357.946 119.447 357.653 119.153C357.359 118.845 357.044 118.603 356.707 118.427C356.369 118.251 356.017 118.127 355.651 118.053C355.284 117.965 354.925 117.921 354.573 117.921C353.81 117.921 353.143 118.075 352.571 118.383C352.013 118.691 351.544 119.095 351.163 119.593C350.796 120.077 350.517 120.635 350.327 121.265C350.136 121.881 350.041 122.497 350.041 123.113C350.041 123.803 350.151 124.47 350.371 125.115C350.591 125.746 350.899 126.303 351.295 126.787C351.705 127.271 352.189 127.66 352.747 127.953C353.319 128.247 353.942 128.393 354.617 128.393C354.969 128.393 355.335 128.349 355.717 128.261C356.098 128.173 356.457 128.034 356.795 127.843C357.147 127.653 357.469 127.411 357.763 127.117C358.056 126.809 358.291 126.443 358.467 126.017L360.953 127.447C360.703 128.034 360.344 128.555 359.875 129.009C359.42 129.449 358.899 129.823 358.313 130.131C357.741 130.439 357.125 130.674 356.465 130.835C355.805 130.997 355.159 131.077 354.529 131.077C353.414 131.077 352.395 130.843 351.471 130.373C350.547 129.904 349.747 129.295 349.073 128.547C348.413 127.785 347.892 126.927 347.511 125.973C347.144 125.005 346.961 124.023 346.961 123.025ZM376.563 115.325V130.945H373.549V124.279H366.465V130.945H363.429V115.325H366.465V121.639H373.549V115.325H376.563ZM392.586 128.371C393.305 128.371 393.906 128.225 394.39 127.931C394.889 127.638 395.285 127.257 395.578 126.787C395.886 126.318 396.099 125.783 396.216 125.181C396.348 124.565 396.414 123.935 396.414 123.289V115.325H399.428V123.289C399.428 124.36 399.296 125.365 399.032 126.303C398.783 127.242 398.38 128.063 397.822 128.767C397.28 129.471 396.576 130.029 395.71 130.439C394.845 130.85 393.811 131.055 392.608 131.055C391.362 131.055 390.298 130.843 389.418 130.417C388.553 129.977 387.849 129.405 387.306 128.701C386.764 127.983 386.368 127.154 386.118 126.215C385.884 125.277 385.766 124.301 385.766 123.289V115.325H388.802V123.289C388.802 123.949 388.861 124.587 388.978 125.203C389.11 125.805 389.323 126.34 389.616 126.809C389.924 127.279 390.32 127.66 390.804 127.953C391.288 128.232 391.882 128.371 392.586 128.371ZM404.532 115.325L408.426 121.133L412.298 115.325H415.576L410.01 123.245L415.4 130.945H412.122L408.426 125.357L404.708 130.945H401.408L406.798 123.245L401.232 115.325H404.532Z" fill="#16F2D7"/>
<defs>
<linearGradient id="paint0_linear" x1="118.921" y1="27.2631" x2="181.937" y2="89.6607" gradientUnits="userSpaceOnUse">
<stop stop-color="#E8634E" stop-opacity="0"/>
<stop offset="1" stop-color="#E8463D"/>
</linearGradient>
<linearGradient id="paint1_linear" x1="56.9912" y1="12.9916" x2="142.447" y2="97.3179" gradientUnits="userSpaceOnUse">
<stop stop-color="#EE8156" stop-opacity="0"/>
<stop offset="1" stop-color="#FF7300"/>
</linearGradient>
<linearGradient id="paint2_linear" x1="95.385" y1="68.1186" x2="158.41" y2="130.508" gradientUnits="userSpaceOnUse">
<stop stop-color="#EECD56" stop-opacity="0"/>
<stop offset="1" stop-color="#EEC834"/>
</linearGradient>
<clipPath id="clip0">
<rect width="420" height="165.657" fill="white" transform="translate(34 3.80469)"/>
</clipPath>
</defs>
</svg>
