<svg width="644" height="439" viewBox="0 0 644 439" fill="none" xmlns="http://www.w3.org/2000/svg">
<path opacity="0.2" d="M84 400L86.25 402.25C93.0155 409.015 103.985 409.015 110.75 402.25V402.25C117.515 395.485 128.485 395.485 135.25 402.25V402.25C142.015 409.015 152.985 409.015 159.75 402.25V402.25C166.515 395.485 177.485 395.485 184.25 402.25V402.25C191.015 409.015 201.985 409.015 208.75 402.25V402.25C215.515 395.485 226.485 395.485 233.25 402.25V402.25C240.015 409.015 250.985 409.015 257.75 402.25V402.25C264.515 395.485 275.485 395.485 282.25 402.25L284.5 404.5" stroke="url(#paint0_linear)" stroke-width="4"/>
<path opacity="0.2" d="M84 424L86.25 426.25C93.0155 433.015 103.985 433.015 110.75 426.25V426.25C117.515 419.485 128.485 419.485 135.25 426.25V426.25C142.015 433.015 152.985 433.015 159.75 426.25V426.25C166.515 419.485 177.485 419.485 184.25 426.25V426.25C191.015 433.015 201.985 433.015 208.75 426.25V426.25C215.515 419.485 226.485 419.485 233.25 426.25V426.25C240.015 433.015 250.985 433.015 257.75 426.25V426.25C264.515 419.485 275.485 419.485 282.25 426.25L284.5 428.5" stroke="url(#paint1_linear)" stroke-width="4"/>
<path opacity="0.2" d="M442 10L444.25 12.25C451.015 19.0155 461.985 19.0155 468.75 12.25V12.25C475.515 5.48451 486.485 5.48451 493.25 12.25V12.25C500.015 19.0155 510.985 19.0155 517.75 12.25V12.25C524.515 5.48451 535.485 5.48451 542.25 12.25V12.25C549.015 19.0155 559.985 19.0155 566.75 12.25V12.25C573.515 5.48451 584.485 5.48451 591.25 12.25V12.25C598.015 19.0155 608.985 19.0155 615.75 12.25V12.25C622.515 5.48451 633.485 5.48451 640.25 12.25L642.5 14.5" stroke="url(#paint2_linear)" stroke-width="4"/>
<path opacity="0.2" d="M442 34L444.25 36.25C451.015 43.0155 461.985 43.0155 468.75 36.25V36.25C475.515 29.4845 486.485 29.4845 493.25 36.25V36.25C500.015 43.0155 510.985 43.0155 517.75 36.25V36.25C524.515 29.4845 535.485 29.4845 542.25 36.25V36.25C549.015 43.0155 559.985 43.0155 566.75 36.25V36.25C573.515 29.4845 584.485 29.4845 591.25 36.25V36.25C598.015 43.0155 608.985 43.0155 615.75 36.25V36.25C622.515 29.4845 633.485 29.4845 640.25 36.25L642.5 38.5" stroke="url(#paint3_linear)" stroke-width="4"/>
<circle cx="87" cy="90" r="86" stroke="#E83A21" stroke-width="2" stroke-miterlimit="11.4737" stroke-dasharray="10 10"/>
<defs>
<linearGradient id="paint0_linear" x1="284.5" y1="402.25" x2="84.0014" y2="402.776" gradientUnits="userSpaceOnUse">
<stop stop-color="#9E1F63"/>
<stop offset="1" stop-color="#0546C9"/>
</linearGradient>
<linearGradient id="paint1_linear" x1="284.5" y1="426.25" x2="84.0014" y2="426.776" gradientUnits="userSpaceOnUse">
<stop stop-color="#9E1F63"/>
<stop offset="1" stop-color="#0546C9"/>
</linearGradient>
<linearGradient id="paint2_linear" x1="642.5" y1="12.25" x2="442.001" y2="12.7763" gradientUnits="userSpaceOnUse">
<stop stop-color="#9E1F63"/>
<stop offset="1" stop-color="#0546C9"/>
</linearGradient>
<linearGradient id="paint3_linear" x1="642.5" y1="36.25" x2="442.001" y2="36.7763" gradientUnits="userSpaceOnUse">
<stop stop-color="#9E1F63"/>
<stop offset="1" stop-color="#0546C9"/>
</linearGradient>
</defs>
</svg>
